{
  "data": {
    "current_page": 2,
    "data": [
      {
        "id": 10492,
        "project_name": "Algotrade",
        "sitemap_path": null,
        "user_id": 15946,
        "is_chat_active": true,
        "created_at": "2023-08-09T13:25:11.000000Z",
        "updated_at": "2023-08-09 13:36:07",
        "is_shared": true,
        "deleted_at": null,
        "type": "UPLOAD_TO_S3",
        "shareable_slug": "155c0bdf521d919d41ad430deac75b7b",
        "shareable_link": "https://app.customgpt.ai/api/v1/projects/10492/conversations?shareable_slug=155c0bdf521d919d41ad430deac75b7b&embed=1",
        "embed_code": "<div id='customgpt_chat'></div><script div_id='customgpt_chat' p_key='10492' p_key='155c0bdf521d919d41ad430deac75b7b' src='https://cdn.customgpt.ai/js/embed.js' width='100%'></script>",
        "live_chat_code": "<script src='https://cdn.customgpt.ai/js/chat.js'></script><script>window.onload = function () { CustomGPT.init({ p_id: '10492', p_key: '155c0bdf521d919d41ad430deac75b7b' }); };</script>"
      },
      {
        "id": 10397,
        "project_name": "Glazenwasserijvanvught",
        "sitemap_path": null,
        "user_id": 15946,
        "is_chat_active": true,
        "created_at": "2023-08-08T20:07:27.000000Z",
        "updated_at": "2023-08-08 20:16:54",
        "is_shared": true,
        "deleted_at": null,
        "type": "UPLOAD_TO_S3",
        "shareable_slug": "616727460297a61dafaa86d0852a5cbd",
        "shareable_link": "https://app.customgpt.ai/api/v1/projects/10397/conversations?shareable_slug=616727460297a61dafaa86d0852a5cbd&embed=1",
        "embed_code": "<div id='customgpt_chat'></div><script div_id='customgpt_chat' p_key='10397' p_key='616727460297a61dafaa86d0852a5cbd' src='https://cdn.customgpt.ai/js/embed.js' width='100%'></script>",
        "live_chat_code": "<script src='https://cdn.customgpt.ai/js/chat.js'></script><script>window.onload = function () { CustomGPT.init({ p_id: '10397', p_key: '616727460297a61dafaa86d0852a5cbd' }); };</script>"
      },
      {
        "id": 10393,
        "project_name": "MultiWagon",
        "sitemap_path": null,
        "user_id": 15946,
        "is_chat_active": true,
        "created_at": "2023-08-08T19:42:25.000000Z",
        "updated_at": "2023-08-08 19:58:59",
        "is_shared": true,
        "deleted_at": null,
        "type": "UPLOAD_TO_S3",
        "shareable_slug": "20023d71ff321db5c2eb9e293bc60a29",
        "shareable_link": "https://app.customgpt.ai/api/v1/projects/10393/conversations?shareable_slug=20023d71ff321db5c2eb9e293bc60a29&embed=1",
        "embed_code": "<div id='customgpt_chat'></div><script div_id='customgpt_chat' p_key='10393' p_key='20023d71ff321db5c2eb9e293bc60a29' src='https://cdn.customgpt.ai/js/embed.js' width='100%'></script>",
        "live_chat_code": "<script src='https://cdn.customgpt.ai/js/chat.js'></script><script>window.onload = function () { CustomGPT.init({ p_id: '10393', p_key: '20023d71ff321db5c2eb9e293bc60a29' }); };</script>"
      },
      {
        "id": 10340,
        "project_name": "beyourgold.com",
        "sitemap_path": null,
        "user_id": 15946,
        "is_chat_active": true,
        "created_at": "2023-08-08T07:33:19.000000Z",
        "updated_at": "2023-08-08 07:43:58",
        "is_shared": true,
        "deleted_at": null,
        "type": "UPLOAD_TO_S3",
        "shareable_slug": "29f01daea55a7e7514d81c430a8d78d8",
        "shareable_link": "https://app.customgpt.ai/api/v1/projects/10340/conversations?shareable_slug=29f01daea55a7e7514d81c430a8d78d8&embed=1",
        "embed_code": "<div id='customgpt_chat'></div><script div_id='customgpt_chat' p_key='10340' p_key='29f01daea55a7e7514d81c430a8d78d8' src='https://cdn.customgpt.ai/js/embed.js' width='100%'></script>",
        "live_chat_code": "<script src='https://cdn.customgpt.ai/js/chat.js'></script><script>window.onload = function () { CustomGPT.init({ p_id: '10340', p_key: '29f01daea55a7e7514d81c430a8d78d8' }); };</script>"
      },
      {
        "id": 10047,
        "project_name": "Medikliniek",
        "sitemap_path": null,
        "user_id": 15946,
        "is_chat_active": true,
        "created_at": "2023-08-03T09:24:05.000000Z",
        "updated_at": "2023-08-03 09:48:33",
        "is_shared": true,
        "deleted_at": null,
        "type": "UPLOAD_TO_S3",
        "shareable_slug": "ccde1f82697d1ccb81c703c373a8a3a0",
        "shareable_link": "https://app.customgpt.ai/api/v1/projects/10047/conversations?shareable_slug=ccde1f82697d1ccb81c703c373a8a3a0&embed=1",
        "embed_code": "<div id='customgpt_chat'></div><script div_id='customgpt_chat' p_key='10047' p_key='ccde1f82697d1ccb81c703c373a8a3a0' src='https://cdn.customgpt.ai/js/embed.js' width='100%'></script>",
        "live_chat_code": "<script src='https://cdn.customgpt.ai/js/chat.js'></script><script>window.onload = function () { CustomGPT.init({ p_id: '10047', p_key: 'ccde1f82697d1ccb81c703c373a8a3a0' }); };</script>"
      },
      {
        "id": 9870,
        "project_name": "Piercings Works",
        "sitemap_path": null,
        "user_id": 15946,
        "is_chat_active": true,
        "created_at": "2023-08-01T07:54:07.000000Z",
        "updated_at": "2023-08-06 12:57:44",
        "is_shared": true,
        "deleted_at": null,
        "type": "UPLOAD_TO_S3",
        "shareable_slug": "d7eb2d1dfe6ce15d9055a83f82edd839",
        "shareable_link": "https://app.customgpt.ai/api/v1/projects/9870/conversations?shareable_slug=d7eb2d1dfe6ce15d9055a83f82edd839&embed=1",
        "embed_code": "<div id='customgpt_chat'></div><script div_id='customgpt_chat' p_key='9870' p_key='d7eb2d1dfe6ce15d9055a83f82edd839' src='https://cdn.customgpt.ai/js/embed.js' width='100%'></script>",
        "live_chat_code": "<script src='https://cdn.customgpt.ai/js/chat.js'></script><script>window.onload = function () { CustomGPT.init({ p_id: '9870', p_key: 'd7eb2d1dfe6ce15d9055a83f82edd839' }); };</script>"
      },
      {
        "id": 7364,
        "project_name": "HostAi.nl",
        "sitemap_path": null,
        "user_id": 15946,
        "is_chat_active": true,
        "created_at": "2023-07-05T20:26:00.000000Z",
        "updated_at": "2023-07-11 10:22:18",
        "is_shared": true,
        "deleted_at": null,
        "type": "UPLOAD_TO_S3",
        "shareable_slug": "89197e7c5b32aa80a12552f6ecbb3583",
        "shareable_link": "https://app.customgpt.ai/api/v1/projects/7364/conversations?shareable_slug=89197e7c5b32aa80a12552f6ecbb3583&embed=1",
        "embed_code": "<div id='customgpt_chat'></div><script div_id='customgpt_chat' p_key='7364' p_key='89197e7c5b32aa80a12552f6ecbb3583' src='https://cdn.customgpt.ai/js/embed.js' width='100%'></script>",
        "live_chat_code": "<script src='https://cdn.customgpt.ai/js/chat.js'></script><script>window.onload = function () { CustomGPT.init({ p_id: '7364', p_key: '89197e7c5b32aa80a12552f6ecbb3583' }); };</script>"
      }
    ],
    "first_page_url": "https://app.customgpt.ai/api/v1/projects?page=1&order=desc&width=100%25&height=auto",
    "from": 11,
    "last_page": 2,
    "last_page_url": "https://app.customgpt.ai/api/v1/projects?page=2&order=desc&width=100%25&height=auto",
    "next_page_url": null,
    "path": "https://app.customgpt.ai/api/v1/projects",
    "per_page": 10,
    "prev_page_url": "https://app.customgpt.ai/api/v1/projects?page=1&order=desc&width=100%25&height=auto",
    "to": 17,
    "total": 17
  },
  "status": "success"
}