{
  "data": {
    "current_page": 1,
    "data": [
      {
        "id": 12648,
        "project_name": "Ziewerk.nl",
        "sitemap_path": null,
        "user_id": 15946,
        "is_chat_active": true,
        "created_at": "2023-09-07T07:23:22.000000Z",
        "updated_at": "2023-09-07 08:03:52",
        "is_shared": true,
        "deleted_at": null,
        "type": "UPLOAD_TO_S3",
        "shareable_slug": "7e4616e4ac3a32fd38b2ac54aff5904c",
        "shareable_link": "https://app.customgpt.ai/api/v1/projects/12648/conversations?shareable_slug=7e4616e4ac3a32fd38b2ac54aff5904c&embed=1",
        "embed_code": "<div id='customgpt_chat'></div><script div_id='customgpt_chat' p_key='12648' p_key='7e4616e4ac3a32fd38b2ac54aff5904c' src='https://cdn.customgpt.ai/js/embed.js' width='100%'></script>",
        "live_chat_code": "<script src='https://cdn.customgpt.ai/js/chat.js'></script><script>window.onload = function () { CustomGPT.init({ p_id: '12648', p_key: '7e4616e4ac3a32fd38b2ac54aff5904c' }); };</script>"
      },
      {
        "id": 12597,
        "project_name": "EismC2",
        "sitemap_path": null,
        "user_id": 15946,
        "is_chat_active": true,
        "created_at": "2023-09-06T17:47:47.000000Z",
        "updated_at": "2023-09-06 20:26:56",
        "is_shared": true,
        "deleted_at": null,
        "type": "SITEMAP",
        "shareable_slug": "e7fe584426c34fe8f7c22feab63e220a",
        "shareable_link": "https://app.customgpt.ai/api/v1/projects/12597/conversations?shareable_slug=e7fe584426c34fe8f7c22feab63e220a&embed=1",
        "embed_code": "<div id='customgpt_chat'></div><script div_id='customgpt_chat' p_key='12597' p_key='e7fe584426c34fe8f7c22feab63e220a' src='https://cdn.customgpt.ai/js/embed.js' width='100%'></script>",
        "live_chat_code": "<script src='https://cdn.customgpt.ai/js/chat.js'></script><script>window.onload = function () { CustomGPT.init({ p_id: '12597', p_key: 'e7fe584426c34fe8f7c22feab63e220a' }); };</script>"
      },
      {
        "id": 12549,
        "project_name": "PlafondPlaatje.nl",
        "sitemap_path": null,
        "user_id": 15946,
        "is_chat_active": true,
        "created_at": "2023-09-06T11:33:48.000000Z",
        "updated_at": "2023-09-06 20:27:41",
        "is_shared": true,
        "deleted_at": null,
        "type": "SITEMAP",
        "shareable_slug": "84d8e0a5acf75d641108e638a7d5448d",
        "shareable_link": "https://app.customgpt.ai/api/v1/projects/12549/conversations?shareable_slug=84d8e0a5acf75d641108e638a7d5448d&embed=1",
        "embed_code": "<div id='customgpt_chat'></div><script div_id='customgpt_chat' p_key='12549' p_key='84d8e0a5acf75d641108e638a7d5448d' src='https://cdn.customgpt.ai/js/embed.js' width='100%'></script>",
        "live_chat_code": "<script src='https://cdn.customgpt.ai/js/chat.js'></script><script>window.onload = function () { CustomGPT.init({ p_id: '12549', p_key: '84d8e0a5acf75d641108e638a7d5448d' }); };</script>"
      },
      {
        "id": 12547,
        "project_name": "IkStopWel",
        "sitemap_path": null,
        "user_id": 15946,
        "is_chat_active": true,
        "created_at": "2023-09-06T10:58:32.000000Z",
        "updated_at": "2023-09-06 20:23:44",
        "is_shared": true,
        "deleted_at": null,
        "type": "SITEMAP",
        "shareable_slug": "6df0164f8965bb4c700f517dabec7c05",
        "shareable_link": "https://app.customgpt.ai/api/v1/projects/12547/conversations?shareable_slug=6df0164f8965bb4c700f517dabec7c05&embed=1",
        "embed_code": "<div id='customgpt_chat'></div><script div_id='customgpt_chat' p_key='12547' p_key='6df0164f8965bb4c700f517dabec7c05' src='https://cdn.customgpt.ai/js/embed.js' width='100%'></script>",
        "live_chat_code": "<script src='https://cdn.customgpt.ai/js/chat.js'></script><script>window.onload = function () { CustomGPT.init({ p_id: '12547', p_key: '6df0164f8965bb4c700f517dabec7c05' }); };</script>"
      },
      {
        "id": 12306,
        "project_name": "BijOnsInDeBrouwerij",
        "sitemap_path": null,
        "user_id": 15946,
        "is_chat_active": true,
        "created_at": "2023-09-04T11:48:18.000000Z",
        "updated_at": "2023-09-04 11:54:58",
        "is_shared": true,
        "deleted_at": null,
        "type": "UPLOAD_TO_S3",
        "shareable_slug": "33adf17c036cf7c0c56f4352f1c34658",
        "shareable_link": "https://app.customgpt.ai/api/v1/projects/12306/conversations?shareable_slug=33adf17c036cf7c0c56f4352f1c34658&embed=1",
        "embed_code": "<div id='customgpt_chat'></div><script div_id='customgpt_chat' p_key='12306' p_key='33adf17c036cf7c0c56f4352f1c34658' src='https://cdn.customgpt.ai/js/embed.js' width='100%'></script>",
        "live_chat_code": "<script src='https://cdn.customgpt.ai/js/chat.js'></script><script>window.onload = function () { CustomGPT.init({ p_id: '12306', p_key: '33adf17c036cf7c0c56f4352f1c34658' }); };</script>"
      },
      {
        "id": 12300,
        "project_name": "www.mijnautoonderdelen.nl",
        "sitemap_path": null,
        "user_id": 15946,
        "is_chat_active": true,
        "created_at": "2023-09-04T10:14:29.000000Z",
        "updated_at": "2023-09-04 10:35:00",
        "is_shared": true,
        "deleted_at": null,
        "type": "SITEMAP",
        "shareable_slug": "6a9bd71c580dfee59311aaba9c6a7448",
        "shareable_link": "https://app.customgpt.ai/api/v1/projects/12300/conversations?shareable_slug=6a9bd71c580dfee59311aaba9c6a7448&embed=1",
        "embed_code": "<div id='customgpt_chat'></div><script div_id='customgpt_chat' p_key='12300' p_key='6a9bd71c580dfee59311aaba9c6a7448' src='https://cdn.customgpt.ai/js/embed.js' width='100%'></script>",
        "live_chat_code": "<script src='https://cdn.customgpt.ai/js/chat.js'></script><script>window.onload = function () { CustomGPT.init({ p_id: '12300', p_key: '6a9bd71c580dfee59311aaba9c6a7448' }); };</script>"
      },
      {
        "id": 11764,
        "project_name": "SpiroTotaal Support",
        "sitemap_path": null,
        "user_id": 15946,
        "is_chat_active": true,
        "created_at": "2023-08-29T10:40:23.000000Z",
        "updated_at": "2023-08-29 13:17:11",
        "is_shared": true,
        "deleted_at": null,
        "type": "SITEMAP",
        "shareable_slug": "36b79574deebb324d8311b2f4fd10f0d",
        "shareable_link": "https://app.customgpt.ai/api/v1/projects/11764/conversations?shareable_slug=36b79574deebb324d8311b2f4fd10f0d&embed=1",
        "embed_code": "<div id='customgpt_chat'></div><script div_id='customgpt_chat' p_key='11764' p_key='36b79574deebb324d8311b2f4fd10f0d' src='https://cdn.customgpt.ai/js/embed.js' width='100%'></script>",
        "live_chat_code": "<script src='https://cdn.customgpt.ai/js/chat.js'></script><script>window.onload = function () { CustomGPT.init({ p_id: '11764', p_key: '36b79574deebb324d8311b2f4fd10f0d' }); };</script>"
      },
      {
        "id": 11708,
        "project_name": "stormaquapark",
        "sitemap_path": null,
        "user_id": 15946,
        "is_chat_active": true,
        "created_at": "2023-08-28T10:36:43.000000Z",
        "updated_at": "2023-08-28 10:44:37",
        "is_shared": true,
        "deleted_at": null,
        "type": "UPLOAD_TO_S3",
        "shareable_slug": "014976389f3614c6a89bacdcf980a60e",
        "shareable_link": "https://app.customgpt.ai/api/v1/projects/11708/conversations?shareable_slug=014976389f3614c6a89bacdcf980a60e&embed=1",
        "embed_code": "<div id='customgpt_chat'></div><script div_id='customgpt_chat' p_key='11708' p_key='014976389f3614c6a89bacdcf980a60e' src='https://cdn.customgpt.ai/js/embed.js' width='100%'></script>",
        "live_chat_code": "<script src='https://cdn.customgpt.ai/js/chat.js'></script><script>window.onload = function () { CustomGPT.init({ p_id: '11708', p_key: '014976389f3614c6a89bacdcf980a60e' }); };</script>"
      },
      {
        "id": 11283,
        "project_name": "Aestec",
        "sitemap_path": null,
        "user_id": 15946,
        "is_chat_active": true,
        "created_at": "2023-08-21T20:56:20.000000Z",
        "updated_at": "2023-08-21 21:12:50",
        "is_shared": true,
        "deleted_at": null,
        "type": "SITEMAP",
        "shareable_slug": "129aa9989c4f8e324db3f942543d63b1",
        "shareable_link": "https://app.customgpt.ai/api/v1/projects/11283/conversations?shareable_slug=129aa9989c4f8e324db3f942543d63b1&embed=1",
        "embed_code": "<div id='customgpt_chat'></div><script div_id='customgpt_chat' p_key='11283' p_key='129aa9989c4f8e324db3f942543d63b1' src='https://cdn.customgpt.ai/js/embed.js' width='100%'></script>",
        "live_chat_code": "<script src='https://cdn.customgpt.ai/js/chat.js'></script><script>window.onload = function () { CustomGPT.init({ p_id: '11283', p_key: '129aa9989c4f8e324db3f942543d63b1' }); };</script>"
      },
      {
        "id": 10823,
        "project_name": "ZorgPro",
        "sitemap_path": null,
        "user_id": 15946,
        "is_chat_active": true,
        "created_at": "2023-08-14T10:33:50.000000Z",
        "updated_at": "2023-08-14 10:39:28",
        "is_shared": true,
        "deleted_at": null,
        "type": "UPLOAD_TO_S3",
        "shareable_slug": "4566178145dda5a7f4642abdcc4e9ade",
        "shareable_link": "https://app.customgpt.ai/api/v1/projects/10823/conversations?shareable_slug=4566178145dda5a7f4642abdcc4e9ade&embed=1",
        "embed_code": "<div id='customgpt_chat'></div><script div_id='customgpt_chat' p_key='10823' p_key='4566178145dda5a7f4642abdcc4e9ade' src='https://cdn.customgpt.ai/js/embed.js' width='100%'></script>",
        "live_chat_code": "<script src='https://cdn.customgpt.ai/js/chat.js'></script><script>window.onload = function () { CustomGPT.init({ p_id: '10823', p_key: '4566178145dda5a7f4642abdcc4e9ade' }); };</script>"
      }
    ],
    "first_page_url": "https://app.customgpt.ai/api/v1/projects?page=1&order=desc&width=100%25&height=auto",
    "from": 1,
    "last_page": 2,
    "last_page_url": "https://app.customgpt.ai/api/v1/projects?page=2&order=desc&width=100%25&height=auto",
    "next_page_url": "https://app.customgpt.ai/api/v1/projects?page=2&order=desc&width=100%25&height=auto",
    "path": "https://app.customgpt.ai/api/v1/projects",
    "per_page": 10,
    "prev_page_url": null,
    "to": 10,
    "total": 17
  },
  "status": "success"
}